{
    "variables": {
        "aws_access_key": "{{env `AWS_ACCESS_KEY_ID`}}",
        "aws_secret_key": "{{env `AWS_SECRET_ACCESS_KEY`}}",
        "aws_region": "{{env `AWS_REGION`}}",
        "ami_name": "{{env `AMI_NAME`}}"
    },

    "builders": [{
        "name": "AWS AMI Builder with Packer",
        "type": "amazon-ebs",
        "access_key": "{{user `aws_access_key`}}",
        "secret_key": "{{user `aws_secret_key`}}",
        "region": "{{user `aws_region`}}",
        "source_ami_filter": {
          "filters": {
            "virtualization-type": "hvm",
            "name": "ubuntu/images/hvm-ssd/ubuntu-bionic-18.04-amd64-server-*",
            "root-device-type": "ebs"
          },
          "owners": ["099720109477"],
          "most_recent": true
        },
        "instance_type": "t2.micro",
        "force_deregister": "true",
        "force_delete_snapshot": "true",
        "ssh_username": "ubuntu",
        "ami_name": "{{user `ami_name`}}",
        "tags": {
          "Name": "{{user `ami_name`}}"
        },
        "run_tags": {
          "Name": "{{user `ami_name`}}"
        },
        "run_volume_tags": {
          "Name": "{{user `ami_name`}}"
        },
        "snapshot_tags": {
          "Name": "{{user `ami_name`}}"
        }
      }],
    
      "provisioners": [{
        "type": "shell",
        "inline": [
          "sudo apt-get -y update",
          "sudo apt-get -y upgrade"
    ]}
      ]}
